winteraka22 - Boardgames
…
Boardgames
 Code

Setup

library(tidyverse)

ratings <- readr::read_csv('https://raw.githubusercontent.com/rfordatascience/tidytuesday/master/data/2022/2022-01-25/ratings.csv')
details <- readr::read_csv('https://raw.githubusercontent.com/rfordatascience/tidytuesday/master/data/2022/2022-01-25/details.csv')

EDA

ratings

# A tibble: 21,831 × 10
     num     id name          year  rank average bayes_average users_rated url  
   <dbl>  <dbl> <chr>        <dbl> <dbl>   <dbl>         <dbl>       <dbl> <chr>
 1   105  30549 Pandemic      2008   106    7.59          7.49      108975 /boa…
 2   189    822 Carcassonne   2000   190    7.42          7.31      108738 /boa…
 3   428     13 Catan         1995   429    7.14          6.97      108024 /boa…
 4    72  68448 7 Wonders     2010    73    7.74          7.63       89982 /boa…
 5   103  36218 Dominion      2008   104    7.61          7.50       81561 /boa…
 6   191   9209 Ticket to R…  2004   192    7.41          7.30       76171 /boa…
 7   100 178900 Codenames     2015   101    7.6           7.51       74419 /boa…
 8     3 167791 Terraformin…  2016     4    8.42          8.27       74216 /boa…
 9    15 173346 7 Wonders D…  2015    16    8.11          7.98       69472 /boa…
10    35  31260 Agricola      2007    36    7.93          7.81       66093 /boa…
# … with 21,821 more rows, and 1 more variable: thumbnail <chr>

details

# A tibble: 21,631 × 23
     num     id primary          description yearpublished minplayers maxplayers
   <dbl>  <dbl> <chr>            <chr>               <dbl>      <dbl>      <dbl>
 1     0  30549 Pandemic         In Pandemi…          2008          2          4
 2     1    822 Carcassonne      Carcassonn…          2000          2          5
 3     2     13 Catan            In CATAN (…          1995          3          4
 4     3  68448 7 Wonders        You are th…          2010          2          7
 5     4  36218 Dominion         &quot;You …          2008          2          4
 6     5   9209 Ticket to Ride   With elega…          2004          2          5
 7     6 178900 Codenames        Codenames …          2015          2          8
 8     7 167791 Terraforming Ma… In the 240…          2016          1          5
 9     8 173346 7 Wonders Duel   In many wa…          2015          2          2
10     9  31260 Agricola         Descriptio…          2007          1          5
# … with 21,621 more rows, and 16 more variables: playingtime <dbl>,
#   minplaytime <dbl>, maxplaytime <dbl>, minage <dbl>,
#   boardgamecategory <chr>, boardgamemechanic <chr>, boardgamefamily <chr>,
#   boardgameexpansion <chr>, boardgameimplementation <chr>,
#   boardgamedesigner <chr>, boardgameartist <chr>, boardgamepublisher <chr>,
#   owned <dbl>, trading <dbl>, wanting <dbl>, wishing <dbl>

https://github.com/rfordatascience/tidytuesday/blob/master/data/2022/2022-01-25/readme.md

ratings <- readr::read_csv('https://raw.githubusercontent.com/rfordatascience/tidytuesday/master/data/2022/2022-01-25/ratings.csv')
details <- readr::read_csv('https://raw.githubusercontent.com/rfordatascience/tidytuesday/master/data/2022/2022-01-25/details.csv')
games <- left_join(ratings, details, by = c("id"))
games

# A tibble: 21,831 × 32
   num.x     id name          year  rank average bayes_average users_rated url  
   <dbl>  <dbl> <chr>        <dbl> <dbl>   <dbl>         <dbl>       <dbl> <chr>
 1   105  30549 Pandemic      2008   106    7.59          7.49      108975 /boa…
 2   189    822 Carcassonne   2000   190    7.42          7.31      108738 /boa…
 3   428     13 Catan         1995   429    7.14          6.97      108024 /boa…
 4    72  68448 7 Wonders     2010    73    7.74          7.63       89982 /boa…
 5   103  36218 Dominion      2008   104    7.61          7.50       81561 /boa…
 6   191   9209 Ticket to R…  2004   192    7.41          7.30       76171 /boa…
 7   100 178900 Codenames     2015   101    7.6           7.51       74419 /boa…
 8     3 167791 Terraformin…  2016     4    8.42          8.27       74216 /boa…
 9    15 173346 7 Wonders D…  2015    16    8.11          7.98       69472 /boa…
10    35  31260 Agricola      2007    36    7.93          7.81       66093 /boa…
# … with 21,821 more rows, and 23 more variables: thumbnail <chr>, num.y <dbl>,
#   primary <chr>, description <chr>, yearpublished <dbl>, minplayers <dbl>,
#   maxplayers <dbl>, playingtime <dbl>, minplaytime <dbl>, maxplaytime <dbl>,
#   minage <dbl>, boardgamecategory <chr>, boardgamemechanic <chr>,
#   boardgamefamily <chr>, boardgameexpansion <chr>,
#   boardgameimplementation <chr>, boardgamedesigner <chr>,
#   boardgameartist <chr>, boardgamepublisher <chr>, owned <dbl>, …
…
