winteraka22 - Tag 1
…
Is there a relationship between flipper length and body mass? How is this influenced by sex and species? Experiment with different visualizations!

penguins |> 
  select(species, island, bill_length_mm)

# A tibble: 344 × 3
   species island    bill_length_mm
   <fct>   <fct>              <dbl>
 1 Adelie  Torgersen           39.1
 2 Adelie  Torgersen           39.5
 3 Adelie  Torgersen           40.3
 4 Adelie  Torgersen           NA  
 5 Adelie  Torgersen           36.7
 6 Adelie  Torgersen           39.3
 7 Adelie  Torgersen           38.9
 8 Adelie  Torgersen           39.2
 9 Adelie  Torgersen           34.1
10 Adelie  Torgersen           42  
# … with 334 more rows

penguins |> 
  select(-species)

# A tibble: 344 × 7
   island  bill_length_mm bill_depth_mm flipper_length_… body_mass_g sex    year
   <fct>            <dbl>         <dbl>            <int>       <int> <fct> <int>
 1 Torger…           39.1          18.7              181        3750 male   2007
 2 Torger…           39.5          17.4              186        3800 fema…  2007
 3 Torger…           40.3          18                195        3250 fema…  2007
 4 Torger…           NA            NA                 NA          NA <NA>   2007
 5 Torger…           36.7          19.3              193        3450 fema…  2007
 6 Torger…           39.3          20.6              190        3650 male   2007
 7 Torger…           38.9          17.8              181        3625 fema…  2007
 8 Torger…           39.2          19.6              195        4675 male   2007
 9 Torger…           34.1          18.1              193        3475 <NA>   2007
10 Torger…           42            20.2              190        4250 <NA>   2007
# … with 334 more rows

penguins |> 
  select(starts_with("bill"))

# A tibble: 344 × 2
   bill_length_mm bill_depth_mm
            <dbl>         <dbl>
 1           39.1          18.7
 2           39.5          17.4
 3           40.3          18  
 4           NA            NA  
 5           36.7          19.3
 6           39.3          20.6
 7           38.9          17.8
 8           39.2          19.6
 9           34.1          18.1
10           42            20.2
# … with 334 more rows

penguins |> 
  mutate(
    new_column = bill_length_mm * 10,
    new_column2 = bill_length_mm - bill_depth_mm
  ) |> 
  select(starts_with("new"), everything())

# A tibble: 344 × 10
   new_column new_column2 species island    bill_length_mm bill_depth_mm
        <dbl>       <dbl> <fct>   <fct>              <dbl>         <dbl>
 1        391        20.4 Adelie  Torgersen           39.1          18.7
 2        395        22.1 Adelie  Torgersen           39.5          17.4
 3        403        22.3 Adelie  Torgersen           40.3          18  
 4         NA        NA   Adelie  Torgersen           NA            NA  
 5        367        17.4 Adelie  Torgersen           36.7          19.3
 6        393        18.7 Adelie  Torgersen           39.3          20.6
 7        389        21.1 Adelie  Torgersen           38.9          17.8
 8        392        19.6 Adelie  Torgersen           39.2          19.6
 9        341        16   Adelie  Torgersen           34.1          18.1
10        420        21.8 Adelie  Torgersen           42            20.2
# … with 334 more rows, and 4 more variables: flipper_length_mm <int>,
#   body_mass_g <int>, sex <fct>, year <int>
…
