winteraka22 - Tag 2
…
library(tidyverse)
library(gapminder)
library(palmerpenguins)
library(gt)

theme_set(
  theme_light() +
  theme(axis.text.x = element_text(face = "bold"))
)

Tabellen

gapminder

# A tibble: 1,704 × 6
   country     continent  year lifeExp      pop gdpPercap
   <fct>       <fct>     <int>   <dbl>    <int>     <dbl>
 1 Afghanistan Asia       1952    28.8  8425333      779.
 2 Afghanistan Asia       1957    30.3  9240934      821.
 3 Afghanistan Asia       1962    32.0 10267083      853.
 4 Afghanistan Asia       1967    34.0 11537966      836.
 5 Afghanistan Asia       1972    36.1 13079460      740.
 6 Afghanistan Asia       1977    38.4 14880372      786.
 7 Afghanistan Asia       1982    39.9 12881816      978.
 8 Afghanistan Asia       1987    40.8 13867957      852.
 9 Afghanistan Asia       1992    41.7 16317921      649.
10 Afghanistan Asia       1997    41.8 22227415      635.
# … with 1,694 more rows
…
lag(gapminder$lifeExp) |> head()

[1]     NA 28.801 30.332 31.997 34.020 36.088

gapminder |> 
  arrange(year) |> 
  group_by(country) |> 
  mutate(
    delta = lifeExp - lag(lifeExp)
  ) |>
  drop_na(delta) |>
  arrange(desc(abs(delta)))

# A tibble: 1,562 × 7
# Groups:   country [142]
   country   continent  year lifeExp       pop gdpPercap  delta
   <fct>     <fct>     <int>   <dbl>     <int>     <dbl>  <dbl>
 1 Rwanda    Africa     1992    23.6   7290203      737. -20.4 
 2 Cambodia  Asia       1982    51.0   7272485      624.  19.7 
 3 China     Asia       1967    58.4 754550000      613.  13.9 
 4 Zimbabwe  Africa     1997    46.8  11404948      792. -13.6 
 5 Rwanda    Africa     1997    36.1   7212583      590.  12.5 
 6 Lesotho   Africa     2002    44.6   2046772     1275. -11.0 
 7 Swaziland Africa     2002    43.9   1130269     4128. -10.4 
 8 Botswana  Africa     1997    52.6   1536536     8647. -10.2 
 9 Cambodia  Asia       1977    31.2   6978607      525.  -9.10
10 Namibia   Africa     2002    51.5   1972153     4072.  -7.43
# … with 1,552 more rows
…
H_0 = The sex of the penguins does not have and influence on the bill length. All bill lengths come from the same distribution.

H_1 = There is an influence.

H_1a = There is an influence. And males have a longer bill.

adelie <- penguins |>
  drop_na() |>
  filter(species == "Adelie")

adelie

# A tibble: 146 × 8
   species island    bill_length_mm bill_depth_mm flipper_length_mm body_mass_g
   <fct>   <fct>              <dbl>         <dbl>             <int>       <int>
 1 Adelie  Torgersen           39.1          18.7               181        3750
 2 Adelie  Torgersen           39.5          17.4               186        3800
 3 Adelie  Torgersen           40.3          18                 195        3250
 4 Adelie  Torgersen           36.7          19.3               193        3450
 5 Adelie  Torgersen           39.3          20.6               190        3650
 6 Adelie  Torgersen           38.9          17.8               181        3625
 7 Adelie  Torgersen           39.2          19.6               195        4675
 8 Adelie  Torgersen           41.1          17.6               182        3200
 9 Adelie  Torgersen           38.6          21.2               191        3800
10 Adelie  Torgersen           34.6          21.1               198        4400
# … with 136 more rows, and 2 more variables: sex <fct>, year <int>
…
    Wilcoxon rank sum exact test

data:  1:3 and 4:6
W = 0, p-value = 0.1
alternative hypothesis: true location shift is not equal to 0

ANOVA

males <- penguins |> 
  filter(sex == "male")

males

# A tibble: 168 × 8
   species island    bill_length_mm bill_depth_mm flipper_length_mm body_mass_g
   <fct>   <fct>              <dbl>         <dbl>             <int>       <int>
 1 Adelie  Torgersen           39.1          18.7               181        3750
 2 Adelie  Torgersen           39.3          20.6               190        3650
 3 Adelie  Torgersen           39.2          19.6               195        4675
 4 Adelie  Torgersen           38.6          21.2               191        3800
 5 Adelie  Torgersen           34.6          21.1               198        4400
 6 Adelie  Torgersen           42.5          20.7               197        4500
 7 Adelie  Torgersen           46            21.5               194        4200
 8 Adelie  Biscoe              37.7          18.7               180        3600
 9 Adelie  Biscoe              38.2          18.1               185        3950
10 Adelie  Biscoe              38.8          17.2               180        3800
# … with 158 more rows, and 2 more variables: sex <fct>, year <int>
…
